:06000000C3E2001612131A
:07000800C3B713E00EEE0E7A
:03001000C33203F5
:03001800C3EA0236
:03002000C30C2EE0
:10003800C3B336524F4D2076352E3820446174654F
:10004800643A20313320446563203230313600442D
:100058002D582044657369676E7320507479204C5D
:1000680074642C20506572746820417573747261D1
:100078006C696100ED5767ED3833C6046F7CB5C90C
:10008800F3210100ED210FED290EED210DED290CD5
:10009800ED3810F611ED3910C9ED3810E6A2ED393A
:1000A8001000ED3810ED280CED200DFBC9C9537078
:1000B800656369616C20503131322056657273690D
:1000C8006F6E3A20496E746572727570747320533E
:1000D8007570706F727465640D00F3217209AF4713
:1000E8002F4EED0C280623EDA30418F5AFED391FAC
:1000F800ED391EAF326EFF21980946237EED39E0B7
:1001080010F9ED38EECBBFED39EE21980946237E84
:10011800ED39E210F9FD212401C3B9093EFEED478E
:10012800ED5E21FFFFAF772BCB7C20FA310000CDAD
:100138008818203BCDB7182036213CFF7E3250FF6F
:10014800326EFF2B7E3259FF2B7E3258FF2B562BF7
:100158005EED5356FF2B7E324FFF2B2B2B7E324EFC
:10016800FF2B7E324DFF2B7E324CFFE6071802F63E
:10017800FF324BFFCB7F20123A4CFFE680ED391F50
:100188003A50FFE680ED391E180AAF323CFF219342
:1001980009CDD702CD170600CDB500CD61043A4B85
:1001A800FFCB7F28083A6EFFE604C4AF05216B0237
:1001B800CD0C2ECD6E03AFED3910213B00CD0C2EAA
:1001C800216D02CD0C2ECD170601CDDC083A4CFF6F
:1001D80017E6F0ED3932217002CD0C2E0628ED1805
:1001E80016ED1017CD3203280E211702FE1B281119
:1001F80021562FFE0D280A1B7AB320E810E0211A99
:1002080002E53E0DCDEA02219F02CD0C2EE1E9CD9B
:100218005619AF326CFF3E0A32A5FE01000010FEEF
:100228000D20FBCD5117CD79153AA5FEFE0A2010F9
:100238003A3CFFE660CA562FFE40280AFE602810A6
:10024800CDD002CD340FCDD0023A68FFB7CC9F1580
:10025800CDD0023A6AFFB7CC87173AA5FE3D20B841
:10026800C3562F0D002020000D20202020284553A4
:100278004361706520746F20656E746572205365E4
:100288007475702C2052455475726E20666F7220FA
:100298004465627567290020202020202020202026
:1002A8002020202020202020202020202020202046
:1002B8002020202020202020202020202020202036
:1002C8002020202020200D00CD3203C2562FC9F552
:1002D800C5AF472F4EED0C280623EDA30418F5C132
:1002E800F1C9F53A6EFFE6022020ED38E0CB572839
:1002F800F93A6EFFE601280DED38E0CB6F28EBDB0D
:10030800EECB7720E5F1ED39E1C9ED3851E6022869
:10031800F9ED386DE62028F9ED386EE61028F9C5B4
:10032800060A10FEC1F1ED3968C93A6EFFCB4F20BD
:100338000BED38E0E601C8ED38E1B7C9DB6DE60141
:10034800C8DB68B7C9905590550090AA00900091F5
:1003580038900191859002911C90039178900491B6
:10036800009005912400214D03CDD7023E0FCD42C8
:1003780004A720553E0DCD4204DD215503FE652816
:1003880008DD215503FE662040473E0ECD42044F4E
:10039800CBBFFE022033C521DE03CD0C2EC12117B1
:1003A8000478FE662003211904C5CD0C2EC1210056
:1003B80004CB792803210404CD0C2E210804CD0C8C
:1003C8002EDDE5E1CDD7021806211B04CD0C2E2128
:1003D8005203CDD702C90D534D4320494F206368BE
:1003E8006970206964656E74696669656420284669
:1003F80044433337433636004754290049522900CD
:100408003A20636F6E6669677572696E670D0035AD
:100418000036000D556E7265636F676E69736564AB
:1004280020494F20636869703A206E6F7420636FAB
:100438006E666967757265640D00ED3990ED3891E7
:10044800C9D5E5210000E5E5395D54CDF22E1BAF95
:1004580012CD0C2EE1E1E1D1C9CD8B04216EFF282C
:1004680005CB8ECB96C9CBD6CDA0043E50ED396FC7
:100478003A6EFFE602C83E41ED396FED3851E602AB
:10048800C018F83EAA47ED396FED386FB8C02F474E
:10049800ED396FED386FB8C9061C21CF043A6EFFED
:1004A800E6184F281321070579FE08280B213F0578
:1004B80079FE1028032177054E23ED8320FA21A029
:1004C800002B7CB520FBC961006383600661006373
:1004D800036403674169006B83680669006B036CFA
:1004E800036F42710073837006710073037403779E
:1004F8004379007B83780679007B037C037F446122
:100508000063836004610063036403674169006BEF
:1005180083680469006B036C036F42710073837016
:1005280004710073037403774379007B837804793B
:10053800007B037C037F4461006383600261006386
:10054800036403674169006B83680269006B036C8D
:10055800036F427100738370027100730374037731
:100568004379007B83780279007B037C037F4461B5
:100578000063836001610063036403674169006B82
:1005880083680169006B036C036F427100738370A9
:1005980001710073037403774379007B83780179D1
:1005A800007B037C037F442104067E23B7280811BF
:1005B800B205D5F5C3F202CD39032806FE0DC8FEF3
:1005C8000AC8ED3851E60228EE2104067E23B72832
:1005D8000811D405D5F5C31203CD39032806FE0D3D
:1005E800C8FE0AC8CD440328F0FE0D2804FE0A20E0
:1005F800E83A6EFFF602326EFFC37E040D0A5072AF
:100608006573732052657475726E2E2E2E2000ED60
:10061800389DCB7728F921C508CDD702ED389DCB79
:100628007728F9ED2814ED2015AFED3910ED38983D
:1006380024CB8406107C21BE06111700BE2806199B
:1006480010FA212D08237EED3916237EED39172364
:100658003A4BFFCB7F28023E05D5E5875F16001988
:100668005E23563E0CED39E0ED19E03E0DED39E024
:10067800ED11E0E111100019D1ED38EFCB5F7E23C9
:1006880020017EED3932237E23666FB4C8D11A1358
:10069800D5A7C8E521AD06CD0C2EE1CD0C2E21B98C
:1006A80006CD0C2EC943505520636C6F636B3A20FE
:1006B800004D487A0D00F600187E023E019E004E5D
:1006C80000260012000800030010104408F4401F20
:1006D8003F039F01CE006600320018000B000400A3
:1006E80010104A08F20024BE03DE01EE0076003A3C
:1006F800001C000D00050020205008EE332B7E045E
:100708003E021E018E004600220010000700202035
:100718005608EC0030FE047E023E019E004E002684
:10072800001200080020205E08E89A39FE05FE0243
:100738007E01BE005E002E0016000A00202065081B
:10074800E6803E81063F039F01CE00660032001816
:10075800000B0020206D08E200487E07BE03DE0182
:10076800EE0076003A001C000D0060A07408DC66FC
:1007780056FE087E043E021E018E0046002200102E
:100788000070F07B08D80060FE09FE047E023E017E
:100798009E004E002600120070F08308D03373FECE
:1007A8000BFE05FE027E01BE005E002E00160070E4
:1007B800F08A08CC007D030D81063F039F01CE001F
:1007C80066003200180070F09208C40090FE0E7E99
:1007D80007BE03DE01EE0076003A001C0070F099B7
:1007E80008B8CDACFE11FE087E043E021E018E0044
:1007F8004600220070F0A008B000C0FE13FE09FEFB
:10080800047E023E019E004E00260070F0A808A05B
:1008180066E6FE17FE0BFE05FE027E01BE005E00C8
:100828002E0070F0AF08D08481063F039F01CE00F0
:100838006600320018000B0070F0B708362E31340D
:100848003400382E30303000392E32313600313114
:100858002E303539320031322E3238380031342ECC
:10086800373435360031362E3030300031382E34BA
:1008780033320032322E313138340032342E3537AB
:10088800360032392E343931320033322E3030309E
:100898000033362E3836340034342E3233363800AE
:1008A80034392E3135320035382E39383234003F5C
:1008B8003F2D556E6B6E6F776E2D3F3F009B809876
:1008C8006099009B039C1014001500160017001077
:1008D80002980000ED38E6C6011FED28E7CB3D95EC
:1008E8006F2608ED6CE5212809CD0C2EE1CD152FDA
:1008F800213809CD0C2EED38E7CD4904214209CD28
:100908000C2EED38E6CD4904214A09CD0C2EED38E0
:10091800EFCB5F214E09C40C2E216B02CD0C2EC9E2
:1009280052414D20617661696C61626C653A2000C4
:100938006B422E2046726F6D200030303020746F6D
:100948002000464646000D2020202020202020524E
:100958004F4D20736861646F77656420696E746FAA
:10096800203173742033326B420036003E0033006E
:100978003270E807EF60E708E6FF3AC8390038FC4C
:10098800DF5C34391000EEA0ED41001F801E00002E
:10099800200444010403C0056009010B560C320D04
:1009A800000E620E0301040F000010001003C105C1
:1009B800EAAFED39E73EFFED39E61100003EF0DD24
:1009C80021CE09C3030B20021EF03E08DD21DB09FE
:1009D800C3030B200216087AB32001767AA72001F8
:1009E8007BD608ED393908210082F9EB21000B018B
:1009F800B900EDB0210000010080AF86EDA1EA0347
:100A08000ACD0082ED11E7ED19E6ED38E7A72017CA
:100A1800ED38EFCB5F20100640ED38E680ED39E683
:100A2800ED38E780ED39E70E00ED00E7ED38E690A8
:100A3800FE0830020E087891ED08EFCB592802C65F
:0E0A480008ED3938ED39393EC8ED393AFDE98F
:100BB900180018007CB5200C211B0CCD0C2E21002F
:100BC90000C3890C7EFE5AC2890CAF326CFFCD99E5
:100BD9002E7BFE01CA340FFE02200CCD79153A682E
:100BE900FFB7CC9F151829FE03201C0602C501007A
:100BF90000C5CD5117C13A6AFFB7CC87170B78B139
:100C090020EFC110E81809AF326CFF3E09CD200270
:100C190037C95A20202020202020202020202020D1
:100C290020202020426F6F7420466972737420411E
:100C39007661696C61626C65204465766963650DEE
:100C490020205A20312C205A20322C206F72205A11
:100C590020332020426F6F742066726F6D20466CBE
:100C69006F70707920302C205343534920302C2049
:100C79006F722047494445204D61737465720D00B8
:100C89007CB5200B21A00CCD0C2E21000018387E3C
:100C9900FE532033C3561953202020202020202022
:100CA90020202020202020202053657475702044A6
:100CB900532D313330322052414D20506172616DD4
:100CC90065746572730D007CB5200B21E70CCD0CA2
:100CD9002E210000184F7EFE54204AC35229542069
:100CE90020202020202020202020202020202020FB
:100CF900446973706C617920446174652F54696D1E
:100D0900650D202054205320202020202020202041
:100D190020202020202053657420446174652F54BD
:100D2900696D650D007CB5200C21950DCD0C2E212A
:100D39000000C35B0E7EFE4CC25B0E3E01326CFFAF
:100D4900CD992E7BFE01CA340FFE02200FCD7915F5
:100D5900CA9F15214A0ECD0C2EC3B22FFE03C21E07
:100D6900020602C5010000C5CD5117C13A6AFFB795
:100D7900CA87170B78B120EFC110E818D611430EB6
:100D8900CDEC2E21150ECD0C2EC3752F4C20202015
:100D990020202020202020202020202020204C6FCF
:100DA9006164204F5320284669727374204176612B
:100DB900696C61626C652920616E64207265747565
:100DC900726E20746F2044454255470D20204C20F7
:100DD900312C204C20322C206F72204C20332020C3
:100DE9004C6F61642066726F6D20466C6F7070790C
:100DF90020302C205343534920302C206F72204738
:100E0900494445204D61737465720D0007426F6F47
:100E19007420547261636B287329206C6F61646557
:100E29006420402038313030482E202045786563D1
:100E39007574652076696120472078787878200D67
:100E490000074E6F7468696E67204C6F6164656452
:100E59000D007CB5200C21860ECD0C2E210000C37F
:100E6900DB0E7EFE50206BCD712ECA6037FE52CA52
:100E79007A37FE72CA7A37F6FFC9C3752F50202018
:100E89002020202020202020202020202020204534
:100E990078656375746520503131322054696E79F3
:100EA9002042617369630D202050205220202020A8
:100EB900202020202020202020202052652D457828
:100EC90065637574652054696E792042617369633D
:100ED9000D007CB5C837C9DF022502121BFF6CE57E
:100EE9000F084F0001DF022502092AFF50E50F080C
:100EF900270201DF022503051BFF54E50F084F02F6
:100F090011DF0225030B11FF22E50F084F0041DF16
:100F19000225030911FF1BE50F084F0031DF0225E8
:100F290003051BFF54E50F084F01113A4BFFCB7F17
:100F39002818CD4014CD860FCDD002CDAD0FCDD020
:100F490002CDC80F21A211C3F410CD40143A4DFFB0
:100F590047E603FE022815CB78284CDD210A0F1637
:100F690000CD1A15383EFE032867181FCB7828379D
:100F7900DD21180F1600CD1A1530561842DD210A49
:100F89000F1600CD1A15D8FE03280ADD21E00EFE42
:100F990002283E37C92B7EFE413036DD21180FFE6F
:100FA90031302EC9CD4014DD21FC0E1600CD1A15A5
:100FB900D8FE03281CDD21EE0EFE02281437C9CD08
:100FC9004014DD21260F1600CD1A15D8FE03C23EA6
:100FD90014CD40142100800100011600DD5E0DD5FD
:100FE9003E02CFD1213211DAF4102A008001762194
:100FF900ED42C2CE10ED73FE8031FE80DD4604DD88
:101009007E0D0E01FE4130010CAF320080210081BE
:10101900DD5E0D1600C5D5E53A00804F06013E029A
:10102900CDB713E1D1C1DAC510D5EB218000DD7E42
:10103900033C3D28032918FAEB19D11C10D53A00B5
:10104900803C320080DD46040D20C5214080E50644
:101059001936002310FBE13A4BFF77CB7F200E2393
:10106900AF0618F5CDC4187723F13C10F63A6CFF9A
:10107900B7202021AD10CD0C2E21FFFFED5B0280A2
:10108900B7ED524D440311FFFF21FF8009EDB82A46
:101099000680E9116080218210011A00EDB02160FB
:1010A90080C3860D0D4F53206C6F616465642C20DD
:1010B900626F6F74696E672E2E2E0D00ED7BFE80B8
:1010C9002168111823210080010002AF86EDA1EAF1
:1010D900D510214D11A72013F53A6CFFB72016F151
:1010E900CC00802185111803216811CD0C2E3E01F9
:1010F900CDB713A7C9F1210711CD0C2E18F04E6FEA
:1011090020274C6F616420616E642052657475728A
:101119006E27207769746820276F6C6427204F53E6
:10112900206C6F616465720D004572726F72207276
:10113900656164696E6720626F6F7420736563749B
:101149006F720D00426F6F7420736563746F722044
:101159006661696C656420636865636B730D00453E
:1011690072726F722072656164696E6720626F6F57
:101179007420747261636B2873290D004572726F54
:10118900722066726F6D20626F6F742D7365637460
:101199006F7220636F64650D00556E7265636F67CA
:1011A9006E697A61626C65206469736B20666F721F
:1011B9006D61740D00C5D50614ED1816ED1017ED07
:1011C90038DECB77280A1B7AB320F410EC371801E4
:1011D900AFD1C1C9CDBE113E053838C5D51142FEC2
:1011E9000607CD2A12121310F9D1C12142FEE57E5C
:1011F900E6F8FDBE012018237EE6FDFDBE02200FA4
:10120900237ED6002009E1AF18093E033718043EB2
:1012190002E137C9F5ED3894CB7F28F9F1ED39951D
:10122900C9ED3894CB7F28F9ED3895C9C546237E99
:10123900CD1D1210F9C1C9E52140FE3A41FE2FA684
:1012490077E1C9CD3E15ED2923ED2124ED39253E60
:10125900A0ED3920AFED3921ED3922C9CD3E15ED8B
:101269002920ED2121ED39223EA0ED3923AFED39B9
:1012790024ED3925C9FDE37B803D67FD7E00CD1D49
:10128900127ACB412802CBD7CD1D1279CB3FCD1D88
:101299001279E601CD1D127BCD1D12DD7E03CD1D18
:1012A900127CCD1D12DD7E05CD1D123E63ED393058
:1012B9003EFFCD1D12CDDD11C5F5010300FD09F17C
:1012C900C1FDE3C9E5D5C5214000DD460304291068
:1012D900FD545D210000C1C51910FDED2926ED2140
:1012E90027224DFEC1D1E1C9CDBE113E05D83E0828
:1012F900CD1D12CD2A1247CD2A12C5CB39B9C13E0F
:101309000737C078E6E0FE20C83E0137C9C5E54287
:10131900043E088710FD3241FE47ED38924FE6FC46
:10132900B2F60CED399279A02029ED3892B0ED3959
:1013390092DD7E0A47ED381FCB7F78280B8747ED72
:10134900381ECB7F7828018701000010FE0D20FB95
:101359003D20F8DD7E0CED39973E03CD1D123A4B49
:10136900FFCB7F201A3A4EFFE60FED4417171717E8
:10137900F60FCD1D123A4EFF1F1F1FE61E180BDD7B
:101389007E00CD1D12DD7E01CB87CD1D122140FED1
:101399003A41FEA620133E07CD1D127ACD1D12CD6E
:1013A900F11238063A41FEB677AFA7E1C1C9FE0787
:1013B90038043E0637C9CDCA13F5DC4014F1D8AF5D
:1013C900C9E521DA1387856F3001247E23666FE32F
:1013D900C940145F14E813EE13F413FA133E15E52C
:1013E9002169141810E5218114180AE521991418A6
:1013F90004E521A614224BFEE1F53EC3324AFEE57F
:10140900210000224DFEE13E033249FEF1E5CD4ABD
:10141900FEE13018FE022804FE07200BF5CD40122C
:101429003A49FE3D20E3F1371142FEC9ED5B4DFE1D
:10143900191142FEC937C9E5AF3240FEED399206AE
:101449000D10FE3E0CED3992215A14CD3512AFE143
:10145900C9041300712BED3892E60FED3992AFC92B
:10146900CD1613C23E14CD4C12CDCD123ECDED3961
:1014790031CD7E12464080C9CD1613C23E14CD65CA
:1014890012CDCD123EF1ED3931CD7E12454080C9E4
:10149900CD1613C23E14CD7E12560000C9CD1613C7
:1014A900C23E143E0FCD1D127ACB412802CBD7CDB7
:1014B9001D1279CB3FCD1D12CDF112D8CD6512E5A4
:1014C900DD6E0426002929ED2926ED2127224DFE6E
:1014D900E13EF1ED39313E4DCD1D127ACB41280265
:1014E900CBD7CD1D12DD7E03CD1D12DD7E04CD1DB2
:1014F90012DD7E07CD1D123E63ED3930DD7E08CD4C
:101509001D12FDE5FD211715CDDD11FDE1C9000015
:1015190000CD1613C23E143E4ACD1D127ACD1D12BE
:10152900FD213B15CDDD11D82142FE110600197EA2
:10153900B7C94A0000E57CE6F067ED383AE6F06F96
:101549007C953805ED38381811ED383A8787878743
:101559006F7C953E003803ED3839E1C5E54C06004E
:101569006F6029292929097CE60F45E160C1A7C9CE
:101579003E80ED394101000010FE0D20FBAFED3931
:1015890041ED3847AFED3942ED3943ED3944ED3896
:10159900423268FFB7C9215DFFAF772377237721EF
:1015A9000080CDD515C02A00807DFE76C07CFE2145
:1015B900C02100810620C5CDD515C1C0215FFF34EA
:1015C9002A5AFF1100021910EDC354103E08325C6B
:1015D900FF225AFF2101002260FFCDF015C82130FA
:1015E900171156FFCDF715ED5B5AFF215CFF22520B
:1015F900FFED5354FFCD0416E602C9ED5362FFAF68
:10160900ED3941ED3942ED39433D3266FFED384759
:101619003E81ED3940ED3841F601ED39413E05EDA8
:1016290039412EFF01409C0B78B1282DED3844E655
:101639004028F43E01ED3941AFED39413269FFED02
:101649003844E62028F9C465163A69FFB72007ED42
:1016590038EECB6718F02A66FF7DB7C9F3AFED39CD
:1016690041ED3845E60C2817AFED3942ED39433DD8
:101679003269FFED3847ED3830E65FED3930C9AFF3
:10168900ED3942ED3847ED3830E65FED39303E0649
:10169900ED3942ED3844E61C0F0FED39432167FF60
:1016A900FE0728362A54FFB7283A3D282D2A52FF2B
:1016B9003D28312166FF3D282121D416CD0C2ECDA0
:1016C9007116F6FF3269FF3266FFC90D202B2B50C8
:1016D90068617365204572720D000E0ACDFC16ED26
:1016E9003947FBC90E08CDFC163E01ED3941ED39EC
:1016F90045FBC9ED3832E6F4B1ED3932CD3E15ED91
:10170900392AED2928ED21293E48ED392BAFED394C
:101719002CED392DED392E3E04ED392FED3830E61B
:1017290057F681ED3930C9030000000400DB5F3E44
:1017390055D35D47DB5DB820092FD35D47DB5DB825
:101749002801F6AF326AFFC93A4BFF17D8CD3617D1
:1017590037C0AF326AFF215CFF3691233674233AD2
:1017690058FF3DF6A07723ED5B56FF7223732323C1
:101779003A59FF77CD1118D03EFF326AFFC9215C73
:10178900FF362023367E2336A02336002336002356
:1017990036012336012336AA210080CD1118D82A13
:1017A9000080017621ED4220262100810620C5CD49
:1017B9001118C1D8225AFF2161FF343A59FFBE30AE
:1017C900063601215EFF342A5AFF10E2C354102164
:1017D9000080010002AF86EDA1EADF17A7C0CD00A6
:1017E9008021F117CD0C2EC94572726F7220667275
:1017F9006F6D20484420626F6F742D736563746F39
:101809007220636F64650D000628ED1816ED101738
:10181900DB5F1730091B7AB320F610EE37C9E521D3
:101829005DFF015E005E1607CB13CB132330037EE9
:10183900ED790B1520F4E10158003A5CFFFE2028F0
:101849000DFE302820FE9137C0CD80181810CD80AC
:1018590018DB5FCB5F28FAEDB2EDB2CD8218DB5F02
:10186900E689C837C9CD8018DB5FCB5F28FAEDB3AD
:10187900EDB3CD821818E7D35FDB5F1738FBC9E5F5
:101889002132FFAF0618F5CDC4187723F13C10F6C5
:101899002132FF0618E5C5AFB62310FCC1E1B72810
:1018A900093EFFA62310FC3C2001F6AFE1C9E52162
:1018B90032FFAF0618862310FCE1C9C587F6C1CDF2
:1018C9001819F30608ED38EECB8FED39EE00ED3837
:1018D900EE0FCB1907CBCFED39EE10E9FBED38EE62
:1018E900CBCFED39EECB97ED39EE79C1C9F57887D4
:1018F900F6C0CD1819F1CD2719ED38EDCBC7ED3963
:10190900EDED38EECBCFED39EECB97ED39EEC9F5EC
:10191900ED38EECB8FED39EECBD7ED39EEF1C54F82
:101929000608F3ED38EDCB87ED39EDED38EECB8FC9
:10193900ED39EECB3FCB1917ED39EECBCFED39EEC3
:1019490010E9ED38EDCBC7ED39EDFBC1C9CD8818EC
:101959002824216319CD0C2EAFC9070D2B2B2B2061
:101969004E6F2044532D31333032206465746563E2
:10197900746564210D00CDB718CA071A218D19CDD8
:101989000C2E18462D2D2D2044532D313330322065
:1019990052414D20696E76616C69642C20656E74C4
:1019A9006572696E6720636F6E6669672E2E2E0DEC
:1019B9000D00DDC313C313800010101000000000D8
:1019C9000000000000000000000021BB191132FFD7
:1019D900011800EDB0CDED1ACD921BCD0B1CCD84B5
:1019E9001CCDBA1DCDF01DCD3020CD3021CD8521A6
:1019F900CDDC21CD3322CDFC223E0DCD1D2ECD5582
:101A090024219E1ACD0C2ECDFC28FE0D2005CD1DBE
:101A19002EAFC9FE1B20553E8ECD1819AFCDFF182C
:101A29002132FF0100001E177E814F7E23CDF6185B
:101A3900041D20F479ED44CDF61821541ACD0C2E4D
:101A49000130750B78B120FBC3F4000D0D20202067
:101A59002028436F6E66696775726174696F6E20BD
:101A6900436F6D706C657465290D0D00D64138049E
:101A7900FE0C3805CD4D29188E6F2600C641CDEADA
:101A8900022901CF1A095E2356EBCDE71A3E0DCD87
:101A99001D2EC3071A0D0D20202052455475726E54
:101AA90020746F20457869742C2045534361706513
:101AB90020746F2053657420616E642052657374BD
:101AC9006172743A2000ED1A921B0B1C841CBA1D1A
:101AD900F01D302030218521DC213322FC22E95DF3
:101AE900203A200021661BCD0C2E3A32FF173E48C2
:101AF900300A3A3CFF173E4630023E44CDEA022105
:101B0900E81ACD0C2ECDFC28FE0D20203A32FF0616
:101B19000017CB183A3CFF0E0017CB193E48CB787B
:101B290028273E46CB7928213E44181D06800E0001
:101B3900FE46281506000E00FE48280D06800E8078
:101B4900FE442805CD4D2918BCCDEA022132FF7E7D
:101B5900E67FB077213CFF7EE67FB177C90D202073
:101B690020202844296F75626C652C202846297528
:101B79006C6C2C20284829616C66204350552053F1
:101B8900706565642020205B0021DF1BCD0C2E3A97
:101B990032FF070707E603F630CDEA0221E81ACD3E
:101BA9000C2ECDFC28FE0D200C3A32FF070707E664
:101BB90003F630180DFE303804FE343805CD4D29B2
:101BC90018E0CDEA02E6030F0F0FE660472132FF66
:101BD9007EE69FB077C90D20202020416464697496
:101BE900696F6E616C2028302E2E3329204D656D6A
:101BF9006F72792057616974205374617465732019
:101C09005B0021581CCD0C2E3A32FF0F0F0FE60353
:101C1900F630CDEA0221E81ACD0C2ECDFC28FE0DB6
:101C2900200C3A32FF0F0F0FE603F630180DFE3085
:101C39003804FE343805CD4D2918E0CDEA02E60313
:101C4900070707E618472132FF7EE6E7B077C90D97
:101C5900202020204164646974696F6E616C2028BA
:101C6900302E2E332920494F20576169742053742F
:101C79006174657320202020205B0021FE1CCD0C9F
:101C89002E3A32FFE607F630CDEA0221E81ACD0CEA
:101C99002ECDFC28FE0D20093A32FFE607F6301852
:101CA9000DFE303804FE383805CD4D2918E3CDEA4C
:101CB90002D630472132FF7EE6F8B0773E0DCD1DC2
:101CC9002E21911DCD0C2E3A3CFFCB473E592002C7
:101CD9003E4ECDEA0221E81ACD0C2ECDFC28CDEAE4
:101CE90002213CFFFE0DC8F57EF60177F1FE59C8C9
:101CF9007EE6FE77C90D0D2020202053656C6563B3
:101D09007420726174652066726F6D3A0D2020200F
:101D1900202020303D333030206270732C20203158
:101D29003D363030206270732C2020323D31323004
:101D390030206270732C2020333D323430302062E1
:101D490070730D202020202020343D34383030207D
:101D59006270732C20353D39363030206270732C17
:101D690020363D31392E32206B6270732C20373D7D
:101D790033382E34206B6270730D20202020436885
:101D89006F69636520205B000D2020202048617267
:101D9900647761726520466C6F7720436F6E747249
:101DA9006F6C3F2028592F4E292020202020205BAE
:101DB9000021C51DCD0C2E1133FF18340D0D202027
:101DC9002020466C6F7070792044726976652030E6
:101DD9003A000D20202020466C6F707079204472E3
:101DE90069766520313A0021DB1DCD0C2E1135FFB6
:101DF90021251ECD0C2E1AE603F6304FCDEA02211D
:101E0900E81ACD0C2ECDFC28FE0D2003791849FEC9
:101E1900303804FE343841CD4D2918E90D202020F1
:101E29002020204472697665205479706520283015
:101E39003D38222C20313D35222F343054726B2C01
:101E490020323D35222F383054726B2C20333D33EC
:101E59002E35222920205B00CDEA02E6034FCBF97B
:101E6900CBD1282F21691FCD0C2E1A47173E4E3092
:101E7900023E59CDEA0221E81ACD0C2ECDFC28FEEE
:101E89000D20083E59CB7820023E4EFE5928373E98
:101E99004ECBB9CDEA0221911FCD0C2ECB503E4E2F
:101EA90020023E59CDEA0221E81ACD0C2ECDFC289C
:101EB900FE0D20083E4ECB5020023E59CB91FE59D3
:101EC90028043E4ECBD1CDEA0221B91FCD0C2E3EBE
:101ED9004ECB7028023E59CDEA0221E81ACD0C2ECC
:101EE900CDFC28FE0D20083E4ECB7028023E59CB72
:101EF900B1FE4E2804CBF13E59CDEA0279121321E5
:101F0900E11FCD0C2E1A0F0FE63C6F2600C5D5E553
:101F1900CD152F21E81ACD0C2ED1CD0C29D1C1FE1A
:101F29003D38023E3CC603CB3FCB3FB720013C873F
:101F39008787874F210920CD0C2E1AE60F6F2600BF
:101F4900C5D5E5CD152F21E81ACD0C2ED1CD0C29FB
:101F5900D1C1FE1038023E0FB720023E03B112C9AB
:101F69000D202020202020486967682D44656E7364
:101F79006974792044726976653F2028592F4E2962
:101F89002020202020205B000D202020202020530D
:101F9900696E676C652D536964656420447269765E
:101FA900653F2028592F4E292020202020205B0022
:101FB9000D2020202020204D6F746F7220436F6EFA
:101FC90074726F6C204E65656465643F2028592FD3
:101FD9004E29202020205B000D2020202020204891
:101FE900656164204C6F61642054696D6520696E78
:101FF900206D532028342E2E3630292020205B00D6
:102009002020202020204472697665205374657051
:10201900205261746520696E206D532028312E2E5F
:1020290031352920205B001137FF216E20CD0C2E80
:102039001AFE0738023E07F6304FCDEA0221E81AA8
:10204900CD0C2ECDFC28FE0D200179FE303804FE82
:10205900383805CD4D2918EBCDEA02D630FE0738C0
:10206900023E8012C90D2020202053656C656374DF
:1020790020486172642044726976652054797065DC
:102089002066726F6D3A0D202020202020303D28D7
:102099004E6F6E65292020202020202020313D41CF
:1020A90043422D3430303020202020202020323D62
:1020B9005365616761746520534353490D2020209E
:1020C900202020333D436F6E6E6572205343534980
:1020D900202020343D5175616E74756D2053435332
:1020E90049202020353D4D6178746F722053435348
:1020F900490D202020202020363D537971756573C4
:102109007420534353492020373D474944452028EB
:102119004944452F415441290D2020202043686F0F
:1021290069636520205B003E0DCD1D2E215D21CD0B
:102139000C2E2138FF5E2356EBD5E5CD152F21E86E
:102149001ACD0C2ED1CD0C29E13005CD4D2918DC45
:10215900722B73C9202020204E756D626572206F25
:1021690066204C6F676963616C2043796C696E64A2
:10217900657273202020202020205B003E0DCD1D9C
:102189002E21B421CD0C2E213AFF5E1600EBD5E5A8
:10219900CD152F21E81ACD0C2ED1CD0C29E138040B
:1021A9007AB72805CD4D2918D873C9202020204E8B
:1021B900756D626572206F66204C6F676963616C2B
:1021C900204865616473205B312E2E3235355D20E0
:1021D900205B003E0DCD1D2E210B22CD0C2E213B67
:1021E900FF5E1600EBD5E5CD152F21E81ACD0C2E93
:1021F900D1CD0C29E138047AB72805CD4D2918D855
:1022090073C9202020204C6F676963616C20536576
:1022190063746F72732050657220547261636B200E
:1022290020202020202020205B003E0DCD1D2E21C6
:102239009722CD0C2E21E6223A3CFF47E66028136F
:1022490021EB2278FE20280B21F22247FE402803A9
:1022590021F722CD0C2E21E81ACD0C2ECDFC28CD4C
:10226900EA02213CFFFE0DC80600FE3028170620B1
:10227900FE3128110640FE32280B0660FE33280580
:10228900CD4D2918D7213CFF7EE69FB077C90D2097
:102299002020204175746F426F6F742046756E63FC
:1022A90074696F6E3A0D20202020202030203D20B7
:1022B9004E6F6E652020313D466C6F70707920201D
:1022C900323D534353492020333D474944450D206E
:1022D90020202043686F69636520205B004E6F6E84
:1022E9006500466C6F707079005343534900474944
:1022F9004445003A6EFFE604C83E0DCD1D2E21A8C7
:1023090023CD0C2E21D8233A3CFFE602200321D00D
:1023190023CD0C2E21E81ACD0C2ECDFC28CDEA02B6
:10232900213CFFFE0D20067EE602C81816FE502845
:1023390009FE41280ACD4D2918E07EE6FD77C97EC0
:10234900F6027721E223CD0C2E2127243A3CFFE621
:10235900184F281321322479FE08280B213D2479AE
:10236900FE102803214924CD0C2E21E81ACD0C2E6C
:10237900CDFC28CDEA02FE0DC80600FE312817065D
:1023890008FE3228110610FE33280B0618FE3428E1
:1023990005CD4D2918DA213CFF7EE6E7B077C92043
:1023A9002020205072696D6172792F416C746572B9
:1023B9006E617465205465726D696E616C20285078
:1023C9002F412920205B005072696D6172790041AB
:1023D9006C7465726E617465000D20202020416C5B
:1023E90074205465726D2042617564205261746570
:1023F9002028313D33382C3430302C20323D3537CC
:102409002C3630302C20333D3131352C3230302CC4
:1024190020343D3233302C34303029205B003338BE
:102429002C343030206270730035372C3630302030
:10243900627073003131352C323030206270730094
:102449003233302C34303020627073001132FF2166
:102459007624CD0C2E1A21942417300C3A3CFF21F6
:102469009924173803218F24CD0C2E182A0D412EBB
:10247900204350552053706565642020202020207A
:102489002020203A200046756C6C0048616C66007B
:10249900446F75626C650021C424CD0C2E1A1F1F70
:1024A9001FF51F1FE603F630CDEA0221DD24CD0C0E
:1024B9002EF1E603F630CDEA0218320D422E204104
:1024C90064642E204D656D6F72792057616974734C
:1024D900203A20000D432E204164642E20492F4FBD
:1024E900205761697473202020203A200021262575
:1024F900CD0C2E1AE6076F8787858587213F2585AD
:102509006F300124CD0C2E219F25CD0C2E3A3CFF96
:10251900E6013E4E28023E59CDEA02187F0D442EAF
:1025290020436F6E736F6C65204461746120526142
:102539007465203A2000333030206270732C2020DB
:102549002000363030206270732C20202000313278
:102559003030206270732C202000323430302062F9
:1025690070732C20200034383030206270732C2096
:10257900200039363030206270732C202000313928
:102589002E32206B6270732C200033382E34206B6E
:102599006270732C20004846433A20001321BB2562
:1025A900CD0C2ECDFA271321D425CD0C2ECDFA270B
:1025B90018320D452E20466C6F707079204472696F
:1025C90076652030202020203A20000D462E204616
:1025D9006C6F7070792044726976652031202020F3
:1025E900203A200013211226CD0C2E1A212B26CB9E
:1025F9007F2010E6076F8787878587213A26856FB1
:10260900300124CD0C2EC3CA260D472E20486172F5
:102619006420447269766520547970652020203AD7
:1026290020004749444520284944452F4154412920
:1026390000284E6F6E652920202020202020202090
:1026490020200041646170746563204143422D3448
:1026590030303041005365616761746520534353DD
:1026690049202020202000436F6E6E65722053435D
:102679005349202020202020005175616E74756D0A
:1026890020534353492020202020004D6178746F46
:102699007220534353492020202020200053797170
:1026A9007565737420534353492020202020003C32
:1026B90072657365727665643E2020202020202093
:1026C9000021F426CD0C2E2A38FFCD152F210D27F8
:1026D900CD0C2E2A3AFF2600CD152F212627CD0C09
:1026E9002E2A3BFF2600CD152F184B0D482E204CC6
:1026F9006F676963616C2043796C696E6465727395
:10270900203A20000D492E204C6F676963616C20C7
:10271900486561647320202020203A20000D4A2E4C
:10272900204C6F676963616C2053637472732F5413
:10273900726B203A2000216527CD0C2E3A3CFF21EF
:102749007E27E6602811218327FE20280A218A276F
:10275900FE402803218F27CD0C2E182F0D4B2E203C
:102769004175746F426F6F742053656C6563742093
:1027790020203A20004E6F6E6500466C6F707079AC
:1027890000534353490047494445003A6EFFCB572C
:10279900C821DD27CD0C2E3A3CFFE602F521D023D6
:1027A900280321D823CD0C2EF1C821F627CD0C2ED4
:1027B9003A3CFFE6184F212724CA0C2E21322479EE
:1027C900FE08CA0C2E213D2479FE10CA0C2E21497F
:1027D90024C30C2E0D4C2E205465726D696E616CEC
:1027E9002053656C6563742020203A200020402026
:1027F900001AE603F587878787216528856F3001E9
:1028090024CD0C2EF1280E1ACB7F21A528200321D7
:10281900AA28CD0C2E1ACB5721B028200321B52880
:10282900CD0C2E1ACB7721BA28200321C428CD0C30
:102839002E21E328CD0C2E131A1F1FE63C6F26000C
:10284900D5CD152FD121CD28CD0C2E1AE60F6F2607
:1028590000D5CD152FD121D928C30C2E38222C20F3
:10286900000000000000000000000000352E323595
:10287900222034302054726B2C200000352E323542
:10288900222038302054726B2C200000332E352240
:1028990020000000000000000000000048442C2037
:1028A900004D464D2C200044532C200053532C201E
:1028B900004D74722043746C2C20004E6F204D74AF
:1028C900722C2000206D53204864204C642C200079
:1028D900206D53205374657073000D202020202033
:1028E90020202020202020202020202020202020DF
:1028F900202000CD320328FBE67FFE61D8FE7BD085
:10290900E65FC9CD7F2E21F9FE2B237EFE2028FA12
:10291900FE0D28261100007E23FE0D281DCD462917
:102929003818E56B6229380E29380B193808293807
:10293900055F160019EBE1D818DD7BB7C9D630D889
:10294900FE0A3FC93E07C3EA02CD712ECAF62AFE26
:1029590053282DFE732829F6FFC90D456E7465723B
:10296900204461746520286D6D2F64642F79792066
:102979006F722064642E6D6D2E797929203A2000BA
:10298900216329CD0C2ECD7F2E2B237EFE2028FA04
:10299900010000CDDD2C3849FE2E200A4B23CDDD68
:1029A9002C383E43180CFE2F20374323CDDD2C381D
:1029B900304B23CDDD2C3829FE0D2025212DFF712B
:1029C9002370232373184A072D2D2D204572726F0A
:1029D9007220696E204461746520537472696E6750
:1029E9000021D029CD0C2E1897446179206F6620DB
:1029F9005765656B2028303D53756E20313D4D6F0D
:102A09006E202E2E2E20363D5361742920203A2027
:102A19000021F229CD0C2ECDFC28CD46293005CD3B
:102A29004D2918F3FE0730F73C322FFFC62FCDEAA8
:102A39000221A22ACD0C2ECD7F2E2B237EFE20280B
:102A4900FACDDD2C384BFE0D28474323CDDD2C383C
:102A5900404B1E00FE0D280A23CDDD2C3833FE0D18
:102A6900202F212AFF73237123703E8ECD1819AFB1
:102A7900CDFF183EBE0607CD1819212AFF7ECD27A6
:102A8900192310F93E80CDFF1821C82ACD0C2E1824
:102A99005C21DC2ACD0C2E18980D456E74657220C8
:102AA90054696D65202868683A6D6D5B3A73735D8A
:102AB9002920202020202020202020203A20000D1D
:102AC900446174652F54696D652073657420746F52
:102AD9003A0D00072D2D2D204572726F7220696EF7
:102AE9002054696D6520537472696E6700212AFF4D
:102AF900CD822C3A2FFFB72805FE08DAFC2B210FCF
:102B09002BCD0C2EAFC90D2B2B2B20496E76616C6A
:102B1900696420436C6F636B20446174610D0053D9
:102B2900756E6461792C20202020004D6F6E6461E0
:102B3900792C2020202000547565736461792C203C
:102B49002020005765646E65736461792C200054F8
:102B5900687572736461792C20200046726964611A
:102B6900792C202020200053617475726461792CBE
:102B7900202000962B9E2BA72BAD2BB32BB72BBC5C
:102B89002BC12BC82BD22BDA2BE32BEC2B4A616EF2
:102B990075617279004665627275617279004D617D
:102BA90072636800417072696C004D6179004A7501
:102BB9006E65004A756C79004175677573740053C9
:102BC900657074656D626572004F63746F626572DA
:102BD900004E6F76656D62657200446563656D626E
:102BE9006572002D2D4261642D2D002031390020A0
:102BF9003230003D5F160CED5C21282B19CD0C2ECF
:102C09003A2DFFCDB72C3E20CDEA023A2EFFF5E64C
:102C19000F4FF1CB673E0A2001AF813DFE0C380210
:102C29003E0C874F0600217C2B097E23666FCD0C55
:102C39002E3A30FF21F42BFE76300321F82BF5CD07
:102C49000C2EF1CDBB2C21792CCD0C2E212CFF7E05
:102C5900E67FCDB72C2B3E3ACDEA027ECDBB2C2B9D
:102C69003E3ACDEA027ECDBB2C3E0DCD1D2EAFC91D
:102C79002020202020202020003EBFCD18190E073B
:102C8900F30608ED38EECB8FED39EE00ED38EE0F97
:102C9900CB1B07CBCFED39EE10E973230D20E2ED05
:102CA90038EECBCFED39EECB97ED39EEFBC9FE10FF
:102CB9003809F51F1F1F1FCDC42CF1E60FC6902739
:102CC900CE4027C3EA02D630D8FE0A3FD0D609D86B
:102CD900FE103FC91E007EFE0DC8FE3AC8FE2EC872
:102CE900FE2FC8CDCF2CD8EB29292929856FEB23B5
:102CF90018E40D5A38302053657269657320524FB4
:102D09004D2D5265736964656E74204465627567FB
:102D19006765722056312E30363A20442D582044AA
:102D2900657369676E7320507479204C7464202030
:102D3900313939370D005479706520273F272066CE
:102D49006F722068656C700D0D00DDE5C5DD21B77A
:102D5900FE47DD7E003CCBB7DDBE01281278DD4E93
:102D6900000600DD3400DDCB00B6DD09DD7702C1E8
:102D7900DDE1C9DDE5C5DD21B7FEDD7E00DD9601BA
:102D890028EDDD4E010600DD3401DDCB01B6DD099C
:102D9900DD7E02A718D9CD3203A7C4532DC90E0071
:102DA900CD9F2DCD7C2D28F8FE08201879A728F075
:102DB9003E08CDEA023E20CDEA023E08CDEA020DE8
:102DC9002B0418DCFE0920123E20CDEA0277230CE1
:102DD9001001C979E60720F018C6FE0D280EFE205D
:102DE90038BEFE7F30BAFE613802D620CD1D2E775F
:102DF900230C05C8FE0DC818A77ECD1D2E23FE0D78
:102E0900C818F67E23A7C8CD1D2E18F77ECD1D2E16
:102E19002310F9C9CDEA02FE0DC03E0ACDEA023EF1
:102E29000DC9E3F5C5D5E9E1D1C1F1E3C9DDE5E5B1
:102E3900D5DDE1013600DD09DD36FF3EE1CDEC2EC1
:102E490006107ECDF22E7EFE203804FE7F38023E2B
:102E59002EDD770023DD2310E9DD36003CDD360168
:102E69000DDDE1C9FE0DC8237EFE2020F7237EFE7D
:102E79002028FAFE0DC921F9FE065022B1FEE536D9
:102E89002023CDA72DE1CD712EC9EB362023EBC927
:102E9900CD712E110000EBC50600E539CDBC2E38E9
:102EA9000ACBF8ED6F23ED6F2B18F11B1AE1CB104C
:102EB900C1EBC9CD9F2D1A13D630D8FE0A3807D6D3
:102EC90007D8FE103FD8A7C9C5CDBC2E380B8787B8
:102ED900878747CDBC2E3801B0C1C9CDD12EF58128
:102EE9004FF1C97CCDF22E1B7DF51F1F1F1FCD038E
:102EF9002FF1CD032F3E201213C9F6F027C6A0CE1D
:102F0900401213C91027E80364000A00DDE5D5C59E
:102F1900DD210D2F06040E30DD5E00DD23DD5600B8
:102F2900DD233E2FA73CED5230FB19B92805CDEA28
:102F3900020EFF10E37DC630CDEA02D1C1DDE1C941
:102F4900D5E5CB7A2803A7180137E1D1C9214FFE6E
:102F590006FCAF772310FC318FFE21FB2CCD0C2E04
:102F690021B600CD0C2E213F2DCD0C2E318FFE2107
:102F7900BB2FCD0C2ECD7F2E28F22322B1FE21BDF1
:102F89002F010900EDA15E235623281DCDFA30EA51
:102F99008D2F2AB1FE2BCDB90B300C3E0021D82F35
:102FA9005F160019CD022E18C321B02FE5D52AB11D
:102FB900FEC93D003A543142CA3544653547F136B8
:102FC90049A9334E20374FC83352DD333F96334931
:102FD9006E76616C696420636F6D6D616E642063E8
:102FE9006F64650D496E76616C6964206865786106
:102FF900646563696D616C2064696769740D496E04
:1030090076616C6964207265676973746572206E94
:10301900616D650D43616E6E6F7420736574206216
:103029007265616B706F696E7420696E207468696E
:103039007320617265610D43616E6E6F74207369EF
:103049006E676C652D7374657020696E207468698C
:103059007320617265610D43616E6E6F74206564E2
:103069006974206D656D6F727920696E2074686965
:103079007320617265610D46756E6374696F6E20A8
:10308900726571756972657320696E74657272759E
:1030990070742068617264776172650D42616420A1
:1030A900636865636B73756D0D52657175697265DA
:1030B9006420617267756D656E74206D69737369DB
:1030C9006E670D4572726F727320696E20496E7456
:1030D900656C2D6865782066696C653A206C61734A
:1030E9007420626164206C696E653A20002020209A
:1030F90000CD2B2EDD214AFF3EE0DDA600283C2134
:10310900CC30CD0C2E2AB5FECD152F21F630CD0CA5
:103119002EDDCB006E21ED2FC4022EDDCB00AEDDFE
:10312900CB0076216030C4022EDDCB00B6DDCB00AA
:103139007E21A530C4022EDDCB00BEDD210000DDDD
:1031490022B3FEDD22B5FECD302EC9EBDD214AFFCB
:103159002AB3FE2322B3FE0E00CDE42E383F47CD1D
:10316900E42E383967CDE42E38336FCDE42E382D6F
:10317900FE002806FE01CCFA30C9A7E5D5114FFE9D
:10318900ED52D1E1301DCDE42E3812772310EBCD6D
:10319900E42E380979A7C8DDCB00FE180ADDCB007B
:1031A900EE1804DDCB00F62AB3FE22B5FEC90D20C8
:1031B900202043204F204D204D2041204E204420E7
:1031C9002020482045204C2050202020285365707D
:1031D9006172617465206669656C64732062792027
:1031E90061207370616365290D0D436F6D6D616EAB
:1031F900647320417661696C61626C653A0D3A20AD
:103209003C496E74656C206865782E3E202020202C
:10321900496E707574206C696E65206F6620496E01
:1032290074656C206865782D666F726D61742064B1
:103239006174610D3F2020202020202020202020A3
:10324900202020202020446973706C6179207468E3
:1032590069732068656C700D42205B61646472203B
:103269005B636F756E745D5D20205365742F636CAD
:1032790065617220627265616B706F696E740D446D
:103289002061646472205B6C656E6774685D2020E0
:1032990020446973706C61792F6368616E6765207A
:1032A9006D656D6F72790D47205B616464725D2095
:1032B900202020202020202020476F2072756E209A
:1032C90070726F6772616D202866726F6D2061641C
:1032D9006472290D4920706F7274202020202020EB
:1032E900202020202020496E7075742026206469D2
:1032F90073706C617920627974652066726F6D20D4
:10330900706F72740D4E205B636F756E745D202053
:103319002020202020202052756E20286E65787488
:10332900204E2920696E737472756374696F6E73A8
:103339000D4F20706F727420646174612020202009
:103349002020204F75747075742064617461206247
:1033590079746520617420706F72740D52205B72EC
:1033690065676973746572206E616D655D20446976
:1033790073706C61792F6368616E67652075736519
:1033890072207265676973746572730D0021B731B4
:10339900CD0C2E210000CDB90B219433CD0C2EC9B3
:1033A900CD992ED5C1ED7821F9FE060636202310D8
:1033B900FBEBCDF22E3E0D1221F9FECD022EC9CD29
:1033C900992E3EDAD2A62FD5CD992EC13EDAD2A6B4
:1033D9002FED59C921F9FECD712EFE52C2F234CD1D
:1033E900712ECAF23456235E3E0DBB20021E200107
:1033F9000014DD21AE34FD21A6FE78FE053004CB94
:10340900C9FD2BDD6E01DD6600A7ED522002CBC19F
:10341900CB41CA8F34DDE5FDE5CD2B2E11F9FEDD5B
:10342900E5E179010300EDB04FCB49280BFD6E00B2
:10343900FD6601CDEC2E1806FD7E00CDF22ECD578E
:103449003521F9FEE5362023C50650CDA72DC1E16A
:10345900CD712E2847FE512009CD302EFDE1DDE149
:10346900AFC9CD9C2EFE0D280821ED2FCD022E18B7
:10347900ABD5DDE1CD302EFDE1DDE3E1FD7500CB1E
:10348900492803FD7401FD2BDD23DD23DD2310090C
:10349900AFCB41C03E2FC3A62FC30334CD302EFD81
:1034A900E1DDE118E141202046202042202043208F
:1034B900204420204520204820204C20204127203E
:1034C90046272042272043272044272045272048F4
:1034D90027204C2720495820495920504320535030
:1034E900203C496E7374722E3E21AE3411F9FE01EF
:1034F9003000EDB03E04CD932E0E03EDB0CD932EEA
:103509003D20F321EA34010800EDB03E0D1221F906
:10351900FECD022E11F9FEDD21A6FE0610DD7E008C
:10352900CDF22EDD2B10F60604DD6600DD6EFFCD33
:10353900EC2EDD2BDD2B10F1DD2A91FE0603DD7E5D
:1035490000DD23CDF22E10F63E0D1213121321F9D0
:10355900FEEBA7ED52EB43CD152EAFC9CD992ED574
:10356900CD992E7AB32828D521000039ED6F23EDA6
:103579006FC179E6F0280104E111F9FEC5CD362EB7
:10358900E521F9FECD022EE1C110EEC91213D5D104
:10359900D5CD492F3E88DAA62FE111F9FEE5CD36C2
:1035A9002E21F9FE0608CD152ECD7F2ED128DEFE5F
:1035B90051C8D5CD9C2EFE0D7BD128D03E15C3A672
:1035C9002F2AA9FE7CB5280A3AABFE7721000022F2
:1035D900A9FE2AB1FECD992E7AB3C8CD492F3E4511
:1035E900DAA62FD5CD992E7AB33E012809CD7C00D4
:1035F9003EA8CAA62F7B32ACFEE17E32ABFE36FF77
:1036090022A9FEC9ED5B91FECD492F3E68DAA62FAE
:10361900EBED4BA9FEA7ED422009214AFFCBC63AA3
:10362900ABFE022A91FE2B7E32B0FE36FB2291FEC2
:1036390022AEFECD7C00118B36732372CD8800ED4E
:1036490073A7FE3193FEFDE1DDE1E1D1C1F108D9B6
:10365900E1D1C1F1ED7B8FFEE52A91FEE3C9FD229F
:1036690093FEFDE1DD2295FEDDE1DD2291FEED73A4
:103679008FFEF331A7FEF5C5D5E508D9F5C5D5E522
:10368900FDE9CD6736ED7BA7FECDA1002AAEFE3A56
:10369900B0FE77214AFFCB46CB86C82AA9FE36FF62
:1036A900C9427265616B20617420CD6736318FFE26
:1036B900FB2A91FE2BED5BA9FEEBA7ED5221ACFE97
:1036C9002007ED5391FE35204111F9FE360121AA5B
:1036D90036010900EDB02A91FECDEC2EEB360D2115
:1036E900F9FECD022EC3B02F2AB1FECD992E7AB3A1
:1036F9002004ED5B91FE2AA9FEA7ED522011CD7C95
:10370900003EA8CAA62FED5391FECD0D361804ED43
:103719005391FEF3C34836CD7C003EA8CAA62F2A92
:10372900B1FECD992E7AB37B20023E0132ADFECD9A
:103739000D36CDDD3321ADFE3520F4C9C37740C345
:103749008440C3A640C3B040C37A37C37A37C37A2B
:1037590037C37A37C37A373100FE21189022169081
:103769003EFF3201903E0CCD294097112141CD33C6
:103779003F3100FECD274011034197CD333F218EC4
:1037890037220290210000220A902204903E3ECD69
:10379900C33ED511AEFCCD5D38CD41387CB5C1CA2B
:1037A90067391B7C121B7D12C5D57993F5CD093F6D
:1037B900D5C2CD37D5CD273FC12A1690CDC83F6098
:1037C90069221690C12A1690CDFC37F1E5FE03CA8D
:1037D9007A37856F3E008C6711C8FBCD3B38D2BC68
:1037E9003E221690D1CDD33FCDFC37D1E1CDC83F94
:1037F900C39637E52A16903600233600E1C9CD4134
:1038090038D640D8C22B3813CD143D29DA8738D59C
:10381900EBCD633DCD3B38DABD3E2177FCCD373E5C
:10382900D1C9FE1B3FD8132177FC07856F3E008C59
:1038390067C97CBAC07DBBC91AFE20C013C3413811
:10384900E3CD4138BE23CA5938C54E060009C11B0C
:103859001323E3C921000044CD4138FE30D8FE3A94
:10386900D03EF0A4C2873804C5444D292909291A34
:1038790013E60F856F3E008C67C11AF26438D511C3
:10388900F640C3913E4C495354B9D952554EB9A942
:103899004E4557B99A53595354454DC0D64E45587C
:1038A90054BAE84C4554BBB94F5554BD70504F4BB1
:1038B90045BDC757414954BD8C4946BB41474F5443
:1038C9004FB9C8474F535542BA4652455455524EBF
:1038D900BA6827BB3D52454DBB3D464F52BA834955
:1038E9004E505554BB5C3FB9F15052494E54B9F151
:1038F90053544F50B9A3BBB3594F552043414E20A0
:10390900414444204D4F5245524E44BD2A494E50E0
:10391900BDB95045454BBDE1555352BDEB414253ED
:10392900BD57465245BD63BD03594F552043414ECE
:1039390020414444204D4F5245544FBA93BE8D53B4
:10394900544550BA9FBAA53E3DBBD13C3EBBD73E7C
:10395900BBDD3DBBEC3C3DBBE43CBBF2BBF8218D80
:1039690038CD4138D51A13FE2ECA8B3923BECA6EFB
:10397900393E7F1BBEDA923923BED2813923D1C3A6
:103989006A393E7F23BED28D397E236EE67F67F189
:10399900E9CD833E211890221690CD833EC37A3714
:1039A900CD833E111890210000CD113FDA7A37EB13
:1039B900220290EB1313CD4D4021A538C36A39CDAE
:1039C900C73BD5CD833ECD093FC28838F1C3B8394D
:1039D900CD5D38CD833ECD093FDA7A37CDB33FCDC2
:1039E9004D40CD113FC3E2390E06CD49383A06CDD7
:1039F9002740C3BF39CD49380D06CD2740C3AF395C
:103A0900CD49382307CDC73B4DC32A3ACD49382480
:103A19000ACDC73B7DCD2940C32A3ACD413FC33B9F
:103A29003ACD49382C06CD703EC3093ACD2740CD51
:103A3900893ECDC73BC5CD713FC1C32A3ACDFE3FB3
:103A4900CDC73BD5CD093FC288382A0290E52A0463
:103A590090E5210000220A9039220490C3B839CD9B
:103A6900833E2A04907CB5CA8D3EF9E1220490E197
:103A7900220290D1CDE23FCD893ECDFE3FCD573ECA
:103A89002B220A90214139C36A39CDC73B220E90B6
:103A9900214739C36A39CDC73BC3A83A210100225E
:103AA9000C902A0290221090EB221290010A002A0F
:103AB9000A90EB6068393E097E23B6CAE13A7E2B4B
:103AC900BAC2C03A7EBBC2C03AEB21000039444DAC
:103AD900210A0019CDD33FF92A1290EBCD893ECDA9
:103AE9000738DA8D3E220690D5EB2A0A907CB5CAB2
:103AF9008E3ECD3B38CA0B3BD1CDE23F2A0690C35F
:103B0900F13A5E23562A0C90E519EB2A0A907323A1
:103B1900722A0E90F1B7F2233BEBCD4D3ED1DA3745
:103B29003B2A10902202902A1290EBCD893ECDE2D9
:103B39003FCD893E2100003ECDC73B7CB5C2BF3990
:103B4900CD293FD2B839C37A372A0890F9E1220240
:103B590090D1D1D5CD413FC36C3BCD0738DAA73BD6
:103B6900C37E3BD5CD0738DA8D3E1A4F9712D1CD9A
:103B7900333F791B12D5EB2A0290E5215C3B2202E7
:103B89009021000039220890D53E3ACDC33E11AEAE
:103B9900FCCDC73BD1EB732372E1220290D1F1CD69
:103BA90049382C03C35C3BCD893E1AFE0DCAC43B80
:103BB900CD573ECD49382C03C3B93BCD893ECD0FF6
:103BC9003CE5214F39C36A39CDFA3BD86FC9CDFAE3
:103BD9003BC86FC9CDFA3BC8D86FC9CDFA3B6FC88E
:103BE900D86CC9CDFA3BC06FC9CDFA3BD06FC9E1DA
:103BF900C979E1C1E5C54FCD0F3CEBE3CD4D3ED1D0
:103C09002100003E01C9CD49382D06210000C341DC
:103C19003CCD49382B00CD4B3CCD49382B15E5CD52
:103C29004B3CEBE37CAA7A19D1FA223CACF2223C58
:103C3900C38738CD49382DE0E5CD4B3CCD413EC356
:103C49002B3CCDFD3CCD49382A2CE5CDFD3C060069
:103C5900CD3E3EEBE3CD3E3E7CB7CA6C3C7AB2EB3F
:103C6900C288387D210000B7CA9E3C19DA88383DE0
:103C7900C2743CC39E3CCD49382F28E5CDFD3C0696
:103C890000CD3E3EEBE3CD3E3E7AB3CA8838C5CD82
:103C9900213E6069C1D17CB7FA873878B7FC413ECB
:103CA900C34E3CCD4938610AE5CD4B3CEBE37DA3DE
:103CB900186ACD49386F0AE5CD4B3CEBE37DB31863
:103CC9005BCD4938780AE5CD4B3CEBE37DAB184C2D
:103CD900CD49386C0DE5CD4B3CEBE37D071D20FC50
:103CE900183ACD49387231E5CD4B3CEBE37D0F1DD8
:103CF90020FC1828211039C36A39CD0738DA0E3D5E
:103D09007E23666FC9CD5D3878B7C0CD493828099B
:103D1900CDC73BCD49382901C9C38D3E6FD1C322D7
:103D29003CCD143D7CB7FA8738B5CA8738D5E52A22
:103D39001490114941CD3B38DA473D2160375E2364
:103D490056221490E1EBC5CD213EC1D123C9CD1432
:103D59003DCD3E3E7CB4FA8738C92A1690D5EB2171
:103D690077FCCD373ED1C9CDC73BC5E5CD49382C08
:103D79004ACDC73BC1ED69C1CD49382C03C3703D5C
:103D8900CD893ECDC73BE5DDE1CD49382C2DCDC7E9
:103D99003BE5CD49382C09CDC73B7DE167C3AA3D39
:103DA900E1C5DDE5C1ED78ACA5CAAE3DC1CD893E21
:103DB900CD143D2600C54DED68C1C9C38D3ECDC7A3
:103DC9003BE5CD49382C18CDC73B7DE177CD493846
:103DD9002C03C3C73DCD893ECD143D6E2600C9C312
:103DE9008D3EC5CD4938282ECDC73BCD4938290B45
:103DF900D5111E3ED57CF60067E5C9CD49382C168C
:103E0900E5CDC73BCD4938290DC1D5111E3ED57821
:103E1900F60047C5C9D1C1C9E56C2600CD2C3E4184
:103E29007DE1670EFF0CCD373ED22E3E19C97D9339
:103E39006F7C9A67C97CB7F07C2F677D2F6F2378D9
:103E4900EE8047C97CAAF2533EEBCD3B38C9CD077A
:103E590038DA8D3EE5CD49383D0ACDC73B444DE1C1
:103E6900712370C9C38D3ECD49383A04F1C3BF39B6
:103E7900CD49380D04F1C3AF39C9CD4138FE0DC85C
:103E8900F1CD703ED511064197CD333FD11AF59743
:103E9900122A0290E57E23B6D1CA7A377EB7FA5242
:103EA9003BCDB33F1BF1123E3FCD294097CD333F68
:103EB900C37A37D5111341C3913ECD294011AEFCC8
:103EC900CD4D40CAC93EFE08CAF03EFE0ACAC93EE7
:103ED900B7CAC93E1213FE0DC2EA3E3E0ACD2940B9
:103EE900C97BFEFEC2C93E7BFEAECA043F1B3E2013
:103EF900CD29403E08CD2940C3C93E3E3EC3C33EFD
:103F09007CB7FA8738111890E52A16902BCD3B38E3
:103F1900E1D81A9547131A9CDA283F1BB0C9131325
:103F29001AFE0DC2283F13C3113F471A13B8C8CD53
:103F39002940FE0DC2343FC9CD4938220F3E22CD5A
:103F4900333FFE0DE1CAAF39232323E9CD49382791
:103F5900053E27C3483FCD49385F0C3E8DCD2940EA
:103F6900CD2940E1C3513FC9D5110A00D5420DCD34
:103F79003E3EF2813F062D0DC5CD213E78B1CA9254
:103F89003FE32DE56069C3823FC10D79B7FAA13FCF
:103F99003E20CD2940C3933F78CD29405D7BFE0A61
:103FA900D1C8C630CD2940C3A63F1A6F131A67136B
:103FB9000E04CD713F3E20CD294097CD333FC9CD69
:103FC9003B38C81A021303C3C83F7892C2DB3F7952
:103FD90093C81B2B1A77C3D33FC1E1220A907CB542
:103FE900CAFC3FE1220C90E1220E90E1221090E1FF
:103FF900221290C5C92100FDCD413EC139D2BC3E36
:104009002A0A907CB5CA24402A1290E52A1090E524
:104019002A0E90E52A0C90E52A0A90E5C5C93E0DBD
:10402900F53A0190B7C23340F1C9F1C5D5E532007F
:1040390090DF3A0090FE0DC246403E0ADF3A0090FA
:10404900E1D1C1C9C5D5E5D7C25740C34940FE0F23
:10405900C266403A01902F320190C34940FE03C223
:1040690073403EFF320190C37A37DFC34940F5C53B
:10407900D5212AFFCD822CD1C1F1C9F5C5012AFF6D
:10408900097ECB3FCB3FCB3FCB3F280647AFC60A84
:1040990010FC4F7EE60F8126006FC1F1C9F5C5D529
:1040A900CDF62AD1C1F1C9F5C57DA7281DAF47CDE8
:1040B900C940CDC940CDC940CDC94010F22D18E93C
:1040C9003DC8F5F1DDE5DDE118F6C1F1C9AF11E053
:1040D90040CD333FC3830E45786974696E67207498
:1040E9006F204D6F6E69746F722E2E2E0D4F5554C1
:1040F900204F462052414E47450D4F4B0D53594EC7
:10410900544158204552524F520D4F5554204F4655
:10411900204D454D4F52590D503131322054494EA1
:10412900592042415349432056312E302028524FBD
:104139004D292C2031382046454220313939390D55
:100B0000C32182D9472100C0D60CED39384E3E555D
:100B100077BE20032F77BE7178D9DDE900082080E9
:100B2000FFF5FDE5ED38EFCBDFED39EFFD211C8260
:100B3000FD7E00FD23FEFF200176DD214182C303FF
:100B40008220EDFDE1575FD60CED39382100C0362B
:100B5000553E08835F3816DD215E82C30382200D77
:100B600036007AD60CED39387EFE5528E41DED3876
:100B7000EFCB9FED39EFDDE17AA720387B92FE3F86
:100B80003832DDE5D50100802100001600ED18EFB8
:100B9000CB9BED19EF7ECBDBED19EF778257EDA103
:100BA000EA9082DDE1F1DDE5BA2808ED38EFCB9F70
:090BB000ED39EFD108ED3939C926
:00000003FD
:00000001FF
